%YAML 1.1
%TAG !u! tag:unity3d.com,2011:
--- !u!21 &2100000
Material:
  serializedVersion: 6
  m_ObjectHideFlags: 0
  m_CorrespondingSourceObject: {fileID: 0}
  m_PrefabInstance: {fileID: 0}
  m_PrefabAsset: {fileID: 0}
  m_Name: Lava Material
  m_Shader: {fileID: -6465566751694194690, guid: 3efdeecef60d5694f8f80df6a0b9705d, type: 3}
  m_ShaderKeywords: 
  m_LightmapFlags: 4
  m_EnableInstancingVariants: 0
  m_DoubleSidedGI: 0
  m_CustomRenderQueue: -1
  stringTagMap: {}
  disabledShaderPasses: []
  m_SavedProperties:
    serializedVersion: 3
    m_TexEnvs:
    - Texture2D_998f326c77d04b75a0f449190156a0fb:
        m_Texture: {fileID: 2800000, guid: 5eb871c3d7f82e54aaa5a345394f302e, type: 3}
        m_Scale: {x: 1, y: 1}
        m_Offset: {x: 0, y: 0}
    - Texture2D_ec36e4b8a9c04a1bb6691d889a96525e:
        m_Texture: {fileID: 2800000, guid: 77b4c3d89b491aa45b2630588b108e0a, type: 3}
        m_Scale: {x: 1, y: 1}
        m_Offset: {x: 0, y: 0}
    - _Texture2DAsset_691cf28a2b79428e97e519ac785db57a_Out_0:
        m_Texture: {fileID: 2800000, guid: 9d23c970bc84c554da94b085c5e0e791, type: 3}
        m_Scale: {x: 1, y: 1}
        m_Offset: {x: 0, y: 0}
    - unity_Lightmaps:
        m_Texture: {fileID: 0}
        m_Scale: {x: 1, y: 1}
        m_Offset: {x: 0, y: 0}
    - unity_LightmapsInd:
        m_Texture: {fileID: 0}
        m_Scale: {x: 1, y: 1}
        m_Offset: {x: 0, y: 0}
    - unity_ShadowMasks:
        m_Texture: {fileID: 0}
        m_Scale: {x: 1, y: 1}
        m_Offset: {x: 0, y: 0}
    m_Floats:
    - Vector1_1: 0.14
    - Vector1_33149721ca3a495f8d9fd2870ee4d161: 0.3
    - Vector1_535ebde8e5754dd68ea53c6cfee1112e: 2.5
    - Vector1_56a4190268494b7493cc74e69981117e: 5.89
    - Vector1_a3b83542eb594d0380af8bb720c0d2ee: 3.37
    m_Colors:
    - Color_1: {r: 1, g: 0.5509933, b: 0, a: 0}
    - Color_19f7bb9dbd584984975744f8b4b1eee1: {r: 1, g: 0.7247121, b: 0.0235849, a: 0}
    - Color_cd5baeefba22485c8be5379a48304266: {r: 1, g: 0, b: 0, a: 0}
    - Vector2_16638136df8d43159e5cb22ae9a3040f: {r: 0.1, g: 0.2, b: 0, a: 0}
    - Vector2_3fa2e96c8c054d59b3eb275b63a1e0b5: {r: 0.1, g: 0.1, b: 0, a: 0}
  m_BuildTextureStacks: []
