%YAML 1.1
%TAG !u! tag:unity3d.com,2011:
--- !u!114 &-4338095797215775276
MonoBehaviour:
  m_ObjectHideFlags: 3
  m_CorrespondingSourceObject: {fileID: 0}
  m_PrefabInstance: {fileID: 0}
  m_PrefabAsset: {fileID: 0}
  m_GameObject: {fileID: 0}
  m_Enabled: 1
  m_EditorHideFlags: 0
  m_Script: {fileID: 11500000, guid: 558a8e2b6826cf840aae193990ba9f2e, type: 3}
  m_Name: ShadowsMidtonesHighlights
  m_EditorClassIdentifier: 
  active: 1
  m_AdvancedMode: 0
  shadows:
    m_OverrideState: 1
    m_Value: {x: 0.9062454, y: 0.9132901, z: 1, w: 0}
  midtones:
    m_OverrideState: 0
    m_Value: {x: 1, y: 1, z: 1, w: 0}
  highlights:
    m_OverrideState: 0
    m_Value: {x: 1, y: 0.89150625, z: 0.6443187, w: 0}
  shadowsStart:
    m_OverrideState: 0
    m_Value: 0
    min: 0
  shadowsEnd:
    m_OverrideState: 0
    m_Value: 0.3
    min: 0
  highlightsStart:
    m_OverrideState: 0
    m_Value: 0.55
    min: 0
  highlightsEnd:
    m_OverrideState: 0
    m_Value: 1
    min: 0
--- !u!114 &11400000
MonoBehaviour:
  m_ObjectHideFlags: 0
  m_CorrespondingSourceObject: {fileID: 0}
  m_PrefabInstance: {fileID: 0}
  m_PrefabAsset: {fileID: 0}
  m_GameObject: {fileID: 0}
  m_Enabled: 1
  m_EditorHideFlags: 0
  m_Script: {fileID: 11500000, guid: d7fd9488000d3734a9e00ee676215985, type: 3}
  m_Name: Global Volume Profile
  m_EditorClassIdentifier: 
  components:
  - {fileID: 8605256656131101084}
  - {fileID: -4338095797215775276}
--- !u!114 &8605256656131101084
MonoBehaviour:
  m_ObjectHideFlags: 3
  m_CorrespondingSourceObject: {fileID: 0}
  m_PrefabInstance: {fileID: 0}
  m_PrefabAsset: {fileID: 0}
  m_GameObject: {fileID: 0}
  m_Enabled: 1
  m_EditorHideFlags: 0
  m_Script: {fileID: 11500000, guid: 0b2db86121404754db890f4c8dfe81b2, type: 3}
  m_Name: Bloom
  m_EditorClassIdentifier: 
  active: 1
  m_AdvancedMode: 0
  threshold:
    m_OverrideState: 0
    m_Value: 0.9
    min: 0
  intensity:
    m_OverrideState: 1
    m_Value: 1
    min: 0
  scatter:
    m_OverrideState: 0
    m_Value: 0.7
    min: 0
    max: 1
  clamp:
    m_OverrideState: 0
    m_Value: 65472
    min: 0
  tint:
    m_OverrideState: 1
    m_Value: {r: 1, g: 0.9382837, b: 0.8537736, a: 1}
    hdr: 0
    showAlpha: 0
    showEyeDropper: 1
  highQualityFiltering:
    m_OverrideState: 0
    m_Value: 0
  skipIterations:
    m_OverrideState: 0
    m_Value: 1
    min: 0
    max: 16
  dirtTexture:
    m_OverrideState: 0
    m_Value: {fileID: 0}
  dirtIntensity:
    m_OverrideState: 0
    m_Value: 0
    min: 0
